Week 5 - Part 2
…
Pipes (`%>%`), unlike assignment operators (`<-`), are read from left to right. It's easy enough to keep track of this, just follow the direction of the carrots! 

---
## Data Manipulation in the `tidyverse`
### Body temperature data

These R functions are helpful with cleaning and organizing data, especially when some data are missing.  

```r
#To select specific columns:
    body_temp_dat %>% select(Temperature, HeartRate)
```

```
## # A tibble: 130 x 2
##    Temperature HeartRate
##          <dbl>     <dbl>
##  1        96.3        70
##  2        96.7        71
##  3        96.9        74
##  4        97          80
##  5        97.1        73
##  6        97.1        75
##  7        97.1        82
##  8        97.2        64
##  9        97.3        69
## 10        97.4        70
## # … with 120 more rows
```

---
## Data Manipulation in the `tidyverse`
### Body temperature data

These R functions are helpful with cleaning and organizing data, especially when some data are missing.  

```r
    #...or equivalently
    body_temp_dat %>% select(-Handedness)
```

```
## # A tibble: 130 x 2
##    Temperature HeartRate
##          <dbl>     <dbl>
##  1        96.3        70
##  2        96.7        71
##  3        96.9        74
##  4        97          80
##  5        97.1        73
##  6        97.1        75
##  7        97.1        82
##  8        97.2        64
##  9        97.3        69
## 10        97.4        70
## # … with 120 more rows
```

---
## Data Manipulation in the `tidyverse`
### Body temperature data

These R functions are helpful with cleaning and organizing data, especially when some data are missing.  

```r
#To select specific rows:    
    body_temp_dat %>% filter(Handedness==1)
```

```
## # A tibble: 65 x 3
##    Temperature Handedness HeartRate
##          <dbl>      <dbl>     <dbl>
##  1        96.3          1        70
##  2        96.7          1        71
##  3        96.9          1        74
##  4        97            1        80
##  5        97.1          1        73
##  6        97.1          1        75
##  7        97.1          1        82
##  8        97.2          1        64
##  9        97.3          1        69
## 10        97.4          1        70
## # … with 55 more rows
```

---
## Data Manipulation in the `tidyverse`
### Body temperature data

These R functions are helpful with cleaning and organizing data, especially when some data are missing.  

```r
#Combine types of selection
    body_temp_dat %>% filter(Handedness==1) %>% 
                      select(-Handedness)
```

```
## # A tibble: 65 x 2
##    Temperature HeartRate
##          <dbl>     <dbl>
##  1        96.3        70
##  2        96.7        71
##  3        96.9        74
##  4        97          80
##  5        97.1        73
##  6        97.1        75
##  7        97.1        82
##  8        97.2        64
##  9        97.3        69
## 10        97.4        70
## # … with 55 more rows
```

---
## Data Manipulation in the `tidyverse`
### Body temperature data

The *mutate()* function allows you to append a new column of data to your original data set. 

```r
  body_temp_dat %>% filter(Handedness==2) %>%
                    mutate(CelciusTemp = ((Temperature-32)*5)/9)
```

```
## # A tibble: 65 x 4
##    Temperature Handedness HeartRate CelciusTemp
##          <dbl>      <dbl>     <dbl>       <dbl>
##  1        96.4          2        69        35.8
##  2        96.7          2        62        35.9
##  3        96.8          2        75        36  
##  4        97.2          2        66        36.2
##  5        97.2          2        68        36.2
##  6        97.4          2        57        36.3
##  7        97.6          2        61        36.4
##  8        97.7          2        84        36.5
##  9        97.7          2        61        36.5
## 10        97.8          2        77        36.6
## # … with 55 more rows
```

---
## Data Manipulation in the `tidyverse`
### Body temperature data

The *mutate()* function is allows us to append a new variable to the original data set and which can be helpful for making sure that any categorical variables are factors in R. 

```r
  body_temp_dat %>% mutate(Handedness_fct = factor(Handedness))
```

```
## # A tibble: 130 x 4
##    Temperature Handedness HeartRate Handedness_fct
##          <dbl>      <dbl>     <dbl> <fct>         
##  1        96.3          1        70 1             
##  2        96.7          1        71 1             
##  3        96.9          1        74 1             
##  4        97            1        80 1             
##  5        97.1          1        73 1             
##  6        97.1          1        75 1             
##  7        97.1          1        82 1             
##  8        97.2          1        64 1             
##  9        97.3          1        69 1             
## 10        97.4          1        70 1             
## # … with 120 more rows
```
…
