Class 2
…
---
# Let's look at some data

```r
rm(list = ls())
#install.packages("tidyverse") ##should also install the dependencies "ggplot2" (for visualizing data) and "margrittr" (for piping)
library("tidyverse")
#setwd("~/Dropbox/z MyStuff Dropbox/Swat docs/Stat 21/Class2_files")  ###NOTE: you must set this to your own directory! 
read_table2("normtemp_data.txt") 
```

```
## # A tibble: 130 x 3
##    Temperature Handedness HeartRate
##          <dbl>      <dbl>     <dbl>
##  1        96.3          1        70
##  2        96.7          1        71
##  3        96.9          1        74
##  4        97            1        80
##  5        97.1          1        73
##  6        97.1          1        75
##  7        97.1          1        82
##  8        97.2          1        64
##  9        97.3          1        69
## 10        97.4          1        70
## # … with 120 more rows
```

---
# Let's look at some data

```
## # A tibble: 130 x 3
##    Temperature Handedness HeartRate
##          <dbl>      <dbl>     <dbl>
##  1        96.3          1        70
##  2        96.7          1        71
##  3        96.9          1        74
##  4        97            1        80
##  5        97.1          1        73
##  6        97.1          1        75
##  7        97.1          1        82
##  8        97.2          1        64
##  9        97.3          1        69
## 10        97.4          1        70
## # … with 120 more rows
```
…
