Class 30
…
---
## Confidence intervals and prediction intervals in R 
### Main effects model 
.scroll-output[

```r
CI_bounds <- as_tibble(predict(MLR_wine1, wine, interval="confidence", level = 0.95)) 
CI_bounds
```

```
## # A tibble: 32 x 3
##      fit   lwr   upr
##    <dbl> <dbl> <dbl>
##  1  16.9  16.1  17.8
##  2  16.9  15.9  17.9
##  3  16.9  16.0  17.7
##  4  17.6  16.6  18.6
##  5  16.0  15.1  17.0
##  6  17.2  16.3  18.0
##  7  15.6  14.8  16.4
##  8  16.1  15.1  17.2
##  9  15.1  14.3  16.0
## 10  13.1  11.4  14.7
## # … with 22 more rows
```

```r
PI_bounds <- as_tibble(predict(MLR_wine1, wine, interval="predict", level = 0.95))
PI_bounds 
```

```
## # A tibble: 32 x 3
##      fit   lwr   upr
##    <dbl> <dbl> <dbl>
##  1  16.9  14.2  19.7
##  2  16.9  14.1  19.6
##  3  16.9  14.1  19.6
##  4  17.6  14.8  20.4
##  5  16.0  13.3  18.8
##  6  17.2  14.4  19.9
##  7  15.6  12.9  18.3
##  8  16.1  13.4  18.9
##  9  15.1  12.4  17.8
## 10  13.1  10.0  16.1
## # … with 22 more rows
```
…
