Class 4
…
---
# A new data set - body temperature

```r
rm(list = ls())
#install.packages("tidyverse") ##should also install the dependencies "ggplot2" (for visualizing data) and "margrittr" (for piping)
library("tidyverse")
setwd("~/Dropbox/z MyStuff Dropbox/Swat docs/Stat 21/Class2_files")
read_table2("normtemp_data.txt") 
```

```
## # A tibble: 130 x 3
##    Temperature Handedness HeartRate
##          <dbl>      <dbl>     <dbl>
##  1        96.3          1        70
##  2        96.7          1        71
##  3        96.9          1        74
##  4        97            1        80
##  5        97.1          1        73
##  6        97.1          1        75
##  7        97.1          1        82
##  8        97.2          1        64
##  9        97.3          1        69
## 10        97.4          1        70
## # … with 120 more rows
```

---
# Body temperature data

```
## # A tibble: 130 x 3
##    Temperature Handedness HeartRate
##          <dbl>      <dbl>     <dbl>
##  1        96.3          1        70
##  2        96.7          1        71
##  3        96.9          1        74
##  4        97            1        80
##  5        97.1          1        73
##  6        97.1          1        75
##  7        97.1          1        82
##  8        97.2          1        64
##  9        97.3          1        69
## 10        97.4          1        70
## # … with 120 more rows
```
…
.footnote[1 https://datacarpentry.org/R-ecology-lesson/03-dplyr.html#selecting_columns_and_filtering_rows]  

---
# Useful ways to manipulate data

These R functions are helpful with cleaning and organizing data, especially when some data are missing.  

```r
#To select specific columns:
    body_temp_dat %>% select(Temperature, HeartRate)
```

```
## # A tibble: 130 x 2
##    Temperature HeartRate
##          <dbl>     <dbl>
##  1        96.3        70
##  2        96.7        71
##  3        96.9        74
##  4        97          80
##  5        97.1        73
##  6        97.1        75
##  7        97.1        82
##  8        97.2        64
##  9        97.3        69
## 10        97.4        70
## # … with 120 more rows
```

---
# Useful ways to manipulate data

These R functions are helpful with cleaning and organizing data, especially when some data are missing.  

```r
    #...or equivalently
    body_temp_dat %>% select(-Handedness)
```

```
## # A tibble: 130 x 2
##    Temperature HeartRate
##          <dbl>     <dbl>
##  1        96.3        70
##  2        96.7        71
##  3        96.9        74
##  4        97          80
##  5        97.1        73
##  6        97.1        75
##  7        97.1        82
##  8        97.2        64
##  9        97.3        69
## 10        97.4        70
## # … with 120 more rows
```

---
# Useful ways to manipulate data

These R functions are helpful with cleaning and organizing data, especially when some data are missing.  

```r
#To select specific rows:    
    body_temp_dat %>% filter(Handedness==1)
```

```
## # A tibble: 65 x 3
##    Temperature Handedness HeartRate
##          <dbl> <chr>          <dbl>
##  1        96.3 1                 70
##  2        96.7 1                 71
##  3        96.9 1                 74
##  4        97   1                 80
##  5        97.1 1                 73
##  6        97.1 1                 75
##  7        97.1 1                 82
##  8        97.2 1                 64
##  9        97.3 1                 69
## 10        97.4 1                 70
## # … with 55 more rows
```

---
# Useful ways to manipulate data

These R functions are helpful with cleaning and organizing data, especially when some data are missing.  

```r
#Combine types of selection
    body_temp_dat %>% filter(Handedness==1) %>% 
                      select(-Handedness)
```

```
## # A tibble: 65 x 2
##    Temperature HeartRate
##          <dbl>     <dbl>
##  1        96.3        70
##  2        96.7        71
##  3        96.9        74
##  4        97          80
##  5        97.1        73
##  6        97.1        75
##  7        97.1        82
##  8        97.2        64
##  9        97.3        69
## 10        97.4        70
## # … with 55 more rows
```

---
# Useful ways to manipulate data

The *mutate()* function allows you to append a new column of data to your original data set. 

```r
  body_temp_dat %>% filter(Handedness==2) %>%
                    mutate(CelciusTemp = ((Temperature-32)*5)/9)
```

```
## # A tibble: 65 x 4
##    Temperature Handedness HeartRate CelciusTemp
##          <dbl> <chr>          <dbl>       <dbl>
##  1        96.4 2                 69        35.8
##  2        96.7 2                 62        35.9
##  3        96.8 2                 75        36  
##  4        97.2 2                 66        36.2
##  5        97.2 2                 68        36.2
##  6        97.4 2                 57        36.3
##  7        97.6 2                 61        36.4
##  8        97.7 2                 84        36.5
##  9        97.7 2                 61        36.5
## 10        97.8 2                 77        36.6
## # … with 55 more rows
```
…
