Class 15
…
```
## Observations: 83
## Variables: 2
## $ order_cat   <fct> Carnivora, Primates, Rodentia, Soricomorpha, Artioda…
## $ sleep_total <dbl> 12.1, 17.0, 14.4, 14.9, 4.0, 14.4, 8.7, 7.0, 10.1, 3…
```

```r
msleep2 
```

```
## # A tibble: 83 x 2
##    order_cat    sleep_total
##    <fct>              <dbl>
##  1 Carnivora           12.1
##  2 Primates            17  
##  3 Rodentia            14.4
##  4 Soricomorpha        14.9
##  5 Artiodactyla         4  
##  6 Pilosa              14.4
##  7 Carnivora            8.7
##  8 Rodentia             7  
##  9 Carnivora           10.1
## 10 Artiodactyla         3  
## # … with 73 more rows
```
…
